%YAML 1.1
%TAG !u! tag:unity3d.com,2011:
--- !u!114 &11400000
MonoBehaviour:
  m_ObjectHideFlags: 0
  m_CorrespondingSourceObject: {fileID: 0}
  m_PrefabInstance: {fileID: 0}
  m_PrefabAsset: {fileID: 0}
  m_GameObject: {fileID: 0}
  m_Enabled: 1
  m_EditorHideFlags: 0
  m_Script: {fileID: 11500000, guid: 25e83c12ea754689a476d23cac7e5ad7, type: 3}
  m_Name: Asteroid_03_LOD_Prototype_15420
  m_EditorClassIdentifier: 
  prefabObject: {fileID: 1412443036335042, guid: 22a5853d8a7e3764f8f982e411e91347,
    type: 3}
  isShadowCasting: 0
  useCustomShadowDistance: 0
  shadowDistance: 0
  shadowLODMap: []
  useOriginalShaderForShadow: 0
  cullShadows: 0
  minDistance: 0
  maxDistance: 500
  isFrustumCulling: 1
  isOcclusionCulling: 1
  frustumOffset: 0.2
  minCullingDistance: 0
  boundsOffset: {x: 0, y: 0, z: 0}
  isLODCrossFade: 0
  isLODCrossFadeAnimate: 1
  lodFadeTransitionWidth: 0.1
  lodBiasAdjustment: 1
  billboard:
    billboardQuality: 1
    atlasResolution: 2048
    frameCount: 8
    replaceLODCullWithBillboard: 1
    isOverridingOriginalCutoff: 0
    cutoffOverride: -1
    billboardBrightness: 0.5
    billboardDistance: 0.8
    quadSize: 0
    yPivotOffset: 0
    albedoAtlasTexture: {fileID: 0}
    normalAtlasTexture: {fileID: 0}
    customBillboardInLODGroup: 0
    useCustomBillboard: 0
    customBillboardMesh: {fileID: 0}
    customBillboardMaterial: {fileID: 0}
    isBillboardShadowCasting: 0
    billboardFaceCamPos: 0
  isBillboardDisabled: 0
  useGeneratedBillboard: 0
  checkedForBillboardExtensions: 0
  autoUpdateTransformData: 0
  treeType: 0
  warningText: 
  enableRuntimeModifications: 1
  startWithRigidBody: 0
  addRemoveInstancesAtRuntime: 0
  extraBufferSize: 0
  addRuntimeHandlerScript: 0
  hasRigidBody: 1
  rigidbodyData:
    useGravity: 0
    angularDrag: 0.5
    mass: 1
    constraints: 0
    drag: 0.5
    isKinematic: 0
    interpolation: 0
  meshRenderersDisabled: 0
  isTransformsSerialized: 0
  serializedTransformData: {fileID: 0}
  serializedTransformDataCount: 0
